(['/home/vivallo/Programming '
  'Projects/PycharmProjects/anagram-master/src/main.py'],
 ['/home/vivallo/Programming Projects/PycharmProjects/anagram-master/src',
  '/home/vivallo/Programming Projects/PycharmProjects/anagram-master'],
 ['codecs'],
 ['/home/vivallo/Programming '
  'Projects/PycharmProjects/venv/lib/python3.9/site-packages/_pyinstaller_hooks_contrib/hooks/stdhooks',
  '/home/vivallo/Programming '
  'Projects/PycharmProjects/venv/lib/python3.9/site-packages/_pyinstaller_hooks_contrib/hooks/stdhooks/__pycache__',
  '/home/vivallo/Programming '
  'Projects/PycharmProjects/venv/lib/python3.9/site-packages/_pyinstaller_hooks_contrib/hooks/rthooks',
  '/home/vivallo/Programming '
  'Projects/PycharmProjects/venv/lib/python3.9/site-packages/_pyinstaller_hooks_contrib/hooks/rthooks/__pycache__',
  '/home/vivallo/Programming '
  'Projects/PycharmProjects/venv/lib/python3.9/site-packages/_pyinstaller_hooks_contrib/hooks',
  '/home/vivallo/Programming '
  'Projects/PycharmProjects/venv/lib/python3.9/site-packages/pygame/__pyinstaller'],
 {},
 [],
 [],
 False,
 False,
 False,
 '3.9.6 (default, Jun 30 2021, 10:22:16) \n[GCC 11.1.0]',
 [('pyi_rth_pkgutil',
   '/home/vivallo/Programming '
   'Projects/PycharmProjects/venv/lib/python3.9/site-packages/PyInstaller/hooks/rthooks/pyi_rth_pkgutil.py',
   'PYSOURCE'),
  ('pyi_rth_multiprocessing',
   '/home/vivallo/Programming '
   'Projects/PycharmProjects/venv/lib/python3.9/site-packages/PyInstaller/hooks/rthooks/pyi_rth_multiprocessing.py',
   'PYSOURCE'),
  ('pyi_rth_inspect',
   '/home/vivallo/Programming '
   'Projects/PycharmProjects/venv/lib/python3.9/site-packages/PyInstaller/hooks/rthooks/pyi_rth_inspect.py',
   'PYSOURCE'),
  ('pyi_rth_pkgres',
   '/home/vivallo/Programming '
   'Projects/PycharmProjects/venv/lib/python3.9/site-packages/PyInstaller/hooks/rthooks/pyi_rth_pkgres.py',
   'PYSOURCE'),
  ('main',
   '/home/vivallo/Programming '
   'Projects/PycharmProjects/anagram-master/src/main.py',
   'PYSOURCE')],
 [('pkg_resources',
   '/home/vivallo/Programming '
   'Projects/PycharmProjects/venv/lib/python3.9/site-packages/pkg_resources/__init__.py',
   'PYMODULE'),
  ('pkg_resources._vendor.packaging._structures',
   '/home/vivallo/Programming '
   'Projects/PycharmProjects/venv/lib/python3.9/site-packages/pkg_resources/_vendor/packaging/_structures.py',
   'PYMODULE'),
  ('__future__', '/usr/lib/python3.9/__future__.py', 'PYMODULE'),
  ('pkg_resources._vendor.packaging._typing',
   '/home/vivallo/Programming '
   'Projects/PycharmProjects/venv/lib/python3.9/site-packages/pkg_resources/_vendor/packaging/_typing.py',
   'PYMODULE'),
  ('typing', '/usr/lib/python3.9/typing.py', 'PYMODULE'),
  ('contextlib', '/usr/lib/python3.9/contextlib.py', 'PYMODULE'),
  ('pkg_resources._vendor.packaging.requirements',
   '/home/vivallo/Programming '
   'Projects/PycharmProjects/venv/lib/python3.9/site-packages/pkg_resources/_vendor/packaging/requirements.py',
   'PYMODULE'),
  ('urllib.parse', '/usr/lib/python3.9/urllib/parse.py', 'PYMODULE'),
  ('urllib', '/usr/lib/python3.9/urllib/__init__.py', 'PYMODULE'),
  ('string', '/usr/lib/python3.9/string.py', 'PYMODULE'),
  ('pkg_resources._vendor.packaging.__about__',
   '/home/vivallo/Programming '
   'Projects/PycharmProjects/venv/lib/python3.9/site-packages/pkg_resources/_vendor/packaging/__about__.py',
   'PYMODULE'),
  ('pkg_resources._vendor.packaging.markers',
   '/home/vivallo/Programming '
   'Projects/PycharmProjects/venv/lib/python3.9/site-packages/pkg_resources/_vendor/packaging/markers.py',
   'PYMODULE'),
  ('pkg_resources._vendor.pyparsing',
   '/home/vivallo/Programming '
   'Projects/PycharmProjects/venv/lib/python3.9/site-packages/pkg_resources/_vendor/pyparsing.py',
   'PYMODULE'),
  ('uuid', '/usr/lib/python3.9/uuid.py', 'PYMODULE'),
  ('hashlib', '/usr/lib/python3.9/hashlib.py', 'PYMODULE'),
  ('logging', '/usr/lib/python3.9/logging/__init__.py', 'PYMODULE'),
  ('pickle', '/usr/lib/python3.9/pickle.py', 'PYMODULE'),
  ('doctest', '/usr/lib/python3.9/doctest.py', 'PYMODULE'),
  ('argparse', '/usr/lib/python3.9/argparse.py', 'PYMODULE'),
  ('gettext', '/usr/lib/python3.9/gettext.py', 'PYMODULE'),
  ('unittest', '/usr/lib/python3.9/unittest/__init__.py', 'PYMODULE'),
  ('unittest.async_case',
   '/usr/lib/python3.9/unittest/async_case.py',
   'PYMODULE'),
  ('asyncio', '/usr/lib/python3.9/asyncio/__init__.py', 'PYMODULE'),
  ('asyncio.unix_events',
   '/usr/lib/python3.9/asyncio/unix_events.py',
   'PYMODULE'),
  ('asyncio.log', '/usr/lib/python3.9/asyncio/log.py', 'PYMODULE'),
  ('signal', '/usr/lib/python3.9/signal.py', 'PYMODULE'),
  ('selectors', '/usr/lib/python3.9/selectors.py', 'PYMODULE'),
  ('asyncio.windows_events',
   '/usr/lib/python3.9/asyncio/windows_events.py',
   'PYMODULE'),
  ('asyncio.windows_utils',
   '/usr/lib/python3.9/asyncio/windows_utils.py',
   'PYMODULE'),
  ('asyncio.selector_events',
   '/usr/lib/python3.9/asyncio/selector_events.py',
   'PYMODULE'),
  ('ssl', '/usr/lib/python3.9/ssl.py', 'PYMODULE'),
  ('calendar', '/usr/lib/python3.9/calendar.py', 'PYMODULE'),
  ('base64', '/usr/lib/python3.9/base64.py', 'PYMODULE'),
  ('getopt', '/usr/lib/python3.9/getopt.py', 'PYMODULE'),
  ('asyncio.proactor_events',
   '/usr/lib/python3.9/asyncio/proactor_events.py',
   'PYMODULE'),
  ('asyncio.base_subprocess',
   '/usr/lib/python3.9/asyncio/base_subprocess.py',
   'PYMODULE'),
  ('asyncio.threads', '/usr/lib/python3.9/asyncio/threads.py', 'PYMODULE'),
  ('contextvars', '/usr/lib/python3.9/contextvars.py', 'PYMODULE'),
  ('asyncio.subprocess',
   '/usr/lib/python3.9/asyncio/subprocess.py',
   'PYMODULE'),
  ('asyncio.streams', '/usr/lib/python3.9/asyncio/streams.py', 'PYMODULE'),
  ('asyncio.queues', '/usr/lib/python3.9/asyncio/queues.py', 'PYMODULE'),
  ('asyncio.runners', '/usr/lib/python3.9/asyncio/runners.py', 'PYMODULE'),
  ('asyncio.base_events',
   '/usr/lib/python3.9/asyncio/base_events.py',
   'PYMODULE'),
  ('concurrent.futures',
   '/usr/lib/python3.9/concurrent/futures/__init__.py',
   'PYMODULE'),
  ('concurrent.futures.thread',
   '/usr/lib/python3.9/concurrent/futures/thread.py',
   'PYMODULE'),
  ('queue', '/usr/lib/python3.9/queue.py', 'PYMODULE'),
  ('concurrent.futures.process',
   '/usr/lib/python3.9/concurrent/futures/process.py',
   'PYMODULE'),
  ('multiprocessing.queues',
   '/usr/lib/python3.9/multiprocessing/queues.py',
   'PYMODULE'),
  ('multiprocessing.synchronize',
   '/usr/lib/python3.9/multiprocessing/synchronize.py',
   'PYMODULE'),
  ('multiprocessing.heap',
   '/usr/lib/python3.9/multiprocessing/heap.py',
   'PYMODULE'),
  ('bisect', '/usr/lib/python3.9/bisect.py', 'PYMODULE'),
  ('multiprocessing.resource_tracker',
   '/usr/lib/python3.9/multiprocessing/resource_tracker.py',
   'PYMODULE'),
  ('multiprocessing.spawn',
   '/usr/lib/python3.9/multiprocessing/spawn.py',
   'PYMODULE'),
  ('runpy', '/usr/lib/python3.9/runpy.py', 'PYMODULE'),
  ('importlib.util', '/usr/lib/python3.9/importlib/util.py', 'PYMODULE'),
  ('importlib._bootstrap_external',
   '/usr/lib/python3.9/importlib/_bootstrap_external.py',
   'PYMODULE'),
  ('importlib.metadata',
   '/usr/lib/python3.9/importlib/metadata.py',
   'PYMODULE'),
  ('configparser', '/usr/lib/python3.9/configparser.py', 'PYMODULE'),
  ('email', '/usr/lib/python3.9/email/__init__.py', 'PYMODULE'),
  ('email._header_value_parser',
   '/usr/lib/python3.9/email/_header_value_parser.py',
   'PYMODULE'),
  ('email.utils', '/usr/lib/python3.9/email/utils.py', 'PYMODULE'),
  ('email._parseaddr', '/usr/lib/python3.9/email/_parseaddr.py', 'PYMODULE'),
  ('email._encoded_words',
   '/usr/lib/python3.9/email/_encoded_words.py',
   'PYMODULE'),
  ('email.header', '/usr/lib/python3.9/email/header.py', 'PYMODULE'),
  ('email.base64mime', '/usr/lib/python3.9/email/base64mime.py', 'PYMODULE'),
  ('email.quoprimime', '/usr/lib/python3.9/email/quoprimime.py', 'PYMODULE'),
  ('email.charset', '/usr/lib/python3.9/email/charset.py', 'PYMODULE'),
  ('email.encoders', '/usr/lib/python3.9/email/encoders.py', 'PYMODULE'),
  ('quopri', '/usr/lib/python3.9/quopri.py', 'PYMODULE'),
  ('email.errors', '/usr/lib/python3.9/email/errors.py', 'PYMODULE'),
  ('csv', '/usr/lib/python3.9/csv.py', 'PYMODULE'),
  ('tokenize', '/usr/lib/python3.9/tokenize.py', 'PYMODULE'),
  ('token', '/usr/lib/python3.9/token.py', 'PYMODULE'),
  ('importlib._bootstrap',
   '/usr/lib/python3.9/importlib/_bootstrap.py',
   'PYMODULE'),
  ('importlib.abc', '/usr/lib/python3.9/importlib/abc.py', 'PYMODULE'),
  ('multiprocessing.process',
   '/usr/lib/python3.9/multiprocessing/process.py',
   'PYMODULE'),
  ('multiprocessing.util',
   '/usr/lib/python3.9/multiprocessing/util.py',
   'PYMODULE'),
  ('multiprocessing.forkserver',
   '/usr/lib/python3.9/multiprocessing/forkserver.py',
   'PYMODULE'),
  ('multiprocessing.context',
   '/usr/lib/python3.9/multiprocessing/context.py',
   'PYMODULE'),
  ('multiprocessing.popen_spawn_win32',
   '/usr/lib/python3.9/multiprocessing/popen_spawn_win32.py',
   'PYMODULE'),
  ('multiprocessing.popen_forkserver',
   '/usr/lib/python3.9/multiprocessing/popen_forkserver.py',
   'PYMODULE'),
  ('multiprocessing.popen_spawn_posix',
   '/usr/lib/python3.9/multiprocessing/popen_spawn_posix.py',
   'PYMODULE'),
  ('multiprocessing.popen_fork',
   '/usr/lib/python3.9/multiprocessing/popen_fork.py',
   'PYMODULE'),
  ('multiprocessing.sharedctypes',
   '/usr/lib/python3.9/multiprocessing/sharedctypes.py',
   'PYMODULE'),
  ('ctypes', '/usr/lib/python3.9/ctypes/__init__.py', 'PYMODULE'),
  ('ctypes._endian', '/usr/lib/python3.9/ctypes/_endian.py', 'PYMODULE'),
  ('multiprocessing.pool',
   '/usr/lib/python3.9/multiprocessing/pool.py',
   'PYMODULE'),
  ('multiprocessing.dummy',
   '/usr/lib/python3.9/multiprocessing/dummy/__init__.py',
   'PYMODULE'),
  ('multiprocessing.dummy.connection',
   '/usr/lib/python3.9/multiprocessing/dummy/connection.py',
   'PYMODULE'),
  ('multiprocessing.managers',
   '/usr/lib/python3.9/multiprocessing/managers.py',
   'PYMODULE'),
  ('multiprocessing.shared_memory',
   '/usr/lib/python3.9/multiprocessing/shared_memory.py',
   'PYMODULE'),
  ('secrets', '/usr/lib/python3.9/secrets.py', 'PYMODULE'),
  ('hmac', '/usr/lib/python3.9/hmac.py', 'PYMODULE'),
  ('multiprocessing.reduction',
   '/usr/lib/python3.9/multiprocessing/reduction.py',
   'PYMODULE'),
  ('multiprocessing.resource_sharer',
   '/usr/lib/python3.9/multiprocessing/resource_sharer.py',
   'PYMODULE'),
  ('multiprocessing.connection',
   '/usr/lib/python3.9/multiprocessing/connection.py',
   'PYMODULE'),
  ('xmlrpc.client', '/usr/lib/python3.9/xmlrpc/client.py', 'PYMODULE'),
  ('xmlrpc', '/usr/lib/python3.9/xmlrpc/__init__.py', 'PYMODULE'),
  ('gzip', '/usr/lib/python3.9/gzip.py', 'PYMODULE'),
  ('_compression', '/usr/lib/python3.9/_compression.py', 'PYMODULE'),
  ('xml.parsers.expat', '/usr/lib/python3.9/xml/parsers/expat.py', 'PYMODULE'),
  ('xml.parsers', '/usr/lib/python3.9/xml/parsers/__init__.py', 'PYMODULE'),
  ('xml', '/usr/lib/python3.9/xml/__init__.py', 'PYMODULE'),
  ('xml.sax.expatreader',
   '/usr/lib/python3.9/xml/sax/expatreader.py',
   'PYMODULE'),
  ('xml.sax.saxutils', '/usr/lib/python3.9/xml/sax/saxutils.py', 'PYMODULE'),
  ('urllib.request', '/usr/lib/python3.9/urllib/request.py', 'PYMODULE'),
  ('fnmatch', '/usr/lib/python3.9/fnmatch.py', 'PYMODULE'),
  ('getpass', '/usr/lib/python3.9/getpass.py', 'PYMODULE'),
  ('nturl2path', '/usr/lib/python3.9/nturl2path.py', 'PYMODULE'),
  ('ftplib', '/usr/lib/python3.9/ftplib.py', 'PYMODULE'),
  ('netrc', '/usr/lib/python3.9/netrc.py', 'PYMODULE'),
  ('shlex', '/usr/lib/python3.9/shlex.py', 'PYMODULE'),
  ('mimetypes', '/usr/lib/python3.9/mimetypes.py', 'PYMODULE'),
  ('http.cookiejar', '/usr/lib/python3.9/http/cookiejar.py', 'PYMODULE'),
  ('http', '/usr/lib/python3.9/http/__init__.py', 'PYMODULE'),
  ('urllib.response', '/usr/lib/python3.9/urllib/response.py', 'PYMODULE'),
  ('urllib.error', '/usr/lib/python3.9/urllib/error.py', 'PYMODULE'),
  ('xml.sax', '/usr/lib/python3.9/xml/sax/__init__.py', 'PYMODULE'),
  ('xml.sax.handler', '/usr/lib/python3.9/xml/sax/handler.py', 'PYMODULE'),
  ('xml.sax._exceptions',
   '/usr/lib/python3.9/xml/sax/_exceptions.py',
   'PYMODULE'),
  ('xml.sax.xmlreader', '/usr/lib/python3.9/xml/sax/xmlreader.py', 'PYMODULE'),
  ('http.client', '/usr/lib/python3.9/http/client.py', 'PYMODULE'),
  ('email.message', '/usr/lib/python3.9/email/message.py', 'PYMODULE'),
  ('email.policy', '/usr/lib/python3.9/email/policy.py', 'PYMODULE'),
  ('email.contentmanager',
   '/usr/lib/python3.9/email/contentmanager.py',
   'PYMODULE'),
  ('email.headerregistry',
   '/usr/lib/python3.9/email/headerregistry.py',
   'PYMODULE'),
  ('email.iterators', '/usr/lib/python3.9/email/iterators.py', 'PYMODULE'),
  ('email.generator', '/usr/lib/python3.9/email/generator.py', 'PYMODULE'),
  ('email._policybase', '/usr/lib/python3.9/email/_policybase.py', 'PYMODULE'),
  ('uu', '/usr/lib/python3.9/uu.py', 'PYMODULE'),
  ('optparse', '/usr/lib/python3.9/optparse.py', 'PYMODULE'),
  ('decimal', '/usr/lib/python3.9/decimal.py', 'PYMODULE'),
  ('_pydecimal', '/usr/lib/python3.9/_pydecimal.py', 'PYMODULE'),
  ('numbers', '/usr/lib/python3.9/numbers.py', 'PYMODULE'),
  ('multiprocessing',
   '/usr/lib/python3.9/multiprocessing/__init__.py',
   'PYMODULE'),
  ('concurrent.futures._base',
   '/usr/lib/python3.9/concurrent/futures/_base.py',
   'PYMODULE'),
  ('concurrent', '/usr/lib/python3.9/concurrent/__init__.py', 'PYMODULE'),
  ('asyncio.trsock', '/usr/lib/python3.9/asyncio/trsock.py', 'PYMODULE'),
  ('asyncio.staggered', '/usr/lib/python3.9/asyncio/staggered.py', 'PYMODULE'),
  ('asyncio.tasks', '/usr/lib/python3.9/asyncio/tasks.py', 'PYMODULE'),
  ('asyncio.base_tasks',
   '/usr/lib/python3.9/asyncio/base_tasks.py',
   'PYMODULE'),
  ('asyncio.locks', '/usr/lib/python3.9/asyncio/locks.py', 'PYMODULE'),
  ('asyncio.sslproto', '/usr/lib/python3.9/asyncio/sslproto.py', 'PYMODULE'),
  ('asyncio.transports',
   '/usr/lib/python3.9/asyncio/transports.py',
   'PYMODULE'),
  ('asyncio.protocols', '/usr/lib/python3.9/asyncio/protocols.py', 'PYMODULE'),
  ('asyncio.futures', '/usr/lib/python3.9/asyncio/futures.py', 'PYMODULE'),
  ('asyncio.exceptions',
   '/usr/lib/python3.9/asyncio/exceptions.py',
   'PYMODULE'),
  ('asyncio.events', '/usr/lib/python3.9/asyncio/events.py', 'PYMODULE'),
  ('asyncio.coroutines',
   '/usr/lib/python3.9/asyncio/coroutines.py',
   'PYMODULE'),
  ('asyncio.base_futures',
   '/usr/lib/python3.9/asyncio/base_futures.py',
   'PYMODULE'),
  ('asyncio.format_helpers',
   '/usr/lib/python3.9/asyncio/format_helpers.py',
   'PYMODULE'),
  ('asyncio.constants', '/usr/lib/python3.9/asyncio/constants.py', 'PYMODULE'),
  ('unittest.signals', '/usr/lib/python3.9/unittest/signals.py', 'PYMODULE'),
  ('unittest.main', '/usr/lib/python3.9/unittest/main.py', 'PYMODULE'),
  ('unittest.runner', '/usr/lib/python3.9/unittest/runner.py', 'PYMODULE'),
  ('unittest.loader', '/usr/lib/python3.9/unittest/loader.py', 'PYMODULE'),
  ('unittest.suite', '/usr/lib/python3.9/unittest/suite.py', 'PYMODULE'),
  ('unittest.case', '/usr/lib/python3.9/unittest/case.py', 'PYMODULE'),
  ('unittest._log', '/usr/lib/python3.9/unittest/_log.py', 'PYMODULE'),
  ('unittest.result', '/usr/lib/python3.9/unittest/result.py', 'PYMODULE'),
  ('unittest.util', '/usr/lib/python3.9/unittest/util.py', 'PYMODULE'),
  ('difflib', '/usr/lib/python3.9/difflib.py', 'PYMODULE'),
  ('_compat_pickle', '/usr/lib/python3.9/_compat_pickle.py', 'PYMODULE'),
  ('struct', '/usr/lib/python3.9/struct.py', 'PYMODULE'),
  ('random', '/usr/lib/python3.9/random.py', 'PYMODULE'),
  ('statistics', '/usr/lib/python3.9/statistics.py', 'PYMODULE'),
  ('fractions', '/usr/lib/python3.9/fractions.py', 'PYMODULE'),
  ('socket', '/usr/lib/python3.9/socket.py', 'PYMODULE'),
  ('subprocess', '/usr/lib/python3.9/subprocess.py', 'PYMODULE'),
  ('shutil', '/usr/lib/python3.9/shutil.py', 'PYMODULE'),
  ('tarfile', '/usr/lib/python3.9/tarfile.py', 'PYMODULE'),
  ('lzma', '/usr/lib/python3.9/lzma.py', 'PYMODULE'),
  ('bz2', '/usr/lib/python3.9/bz2.py', 'PYMODULE'),
  ('pdb', '/usr/lib/python3.9/pdb.py', 'PYMODULE'),
  ('pydoc', '/usr/lib/python3.9/pydoc.py', 'PYMODULE'),
  ('webbrowser', '/usr/lib/python3.9/webbrowser.py', 'PYMODULE'),
  ('http.server', '/usr/lib/python3.9/http/server.py', 'PYMODULE'),
  ('socketserver', '/usr/lib/python3.9/socketserver.py', 'PYMODULE'),
  ('html', '/usr/lib/python3.9/html/__init__.py', 'PYMODULE'),
  ('html.entities', '/usr/lib/python3.9/html/entities.py', 'PYMODULE'),
  ('pydoc_data.topics', '/usr/lib/python3.9/pydoc_data/topics.py', 'PYMODULE'),
  ('pydoc_data', '/usr/lib/python3.9/pydoc_data/__init__.py', 'PYMODULE'),
  ('tty', '/usr/lib/python3.9/tty.py', 'PYMODULE'),
  ('glob', '/usr/lib/python3.9/glob.py', 'PYMODULE'),
  ('code', '/usr/lib/python3.9/code.py', 'PYMODULE'),
  ('codeop', '/usr/lib/python3.9/codeop.py', 'PYMODULE'),
  ('dis', '/usr/lib/python3.9/dis.py', 'PYMODULE'),
  ('opcode', '/usr/lib/python3.9/opcode.py', 'PYMODULE'),
  ('bdb', '/usr/lib/python3.9/bdb.py', 'PYMODULE'),
  ('cmd', '/usr/lib/python3.9/cmd.py', 'PYMODULE'),
  ('threading', '/usr/lib/python3.9/threading.py', 'PYMODULE'),
  ('_threading_local', '/usr/lib/python3.9/_threading_local.py', 'PYMODULE'),
  ('datetime', '/usr/lib/python3.9/datetime.py', 'PYMODULE'),
  ('_strptime', '/usr/lib/python3.9/_strptime.py', 'PYMODULE'),
  ('pprint', '/usr/lib/python3.9/pprint.py', 'PYMODULE'),
  ('copy', '/usr/lib/python3.9/copy.py', 'PYMODULE'),
  ('pkg_resources._vendor.packaging.version',
   '/home/vivallo/Programming '
   'Projects/PycharmProjects/venv/lib/python3.9/site-packages/pkg_resources/_vendor/packaging/version.py',
   'PYMODULE'),
  ('pkg_resources._vendor.appdirs',
   '/home/vivallo/Programming '
   'Projects/PycharmProjects/venv/lib/python3.9/site-packages/pkg_resources/_vendor/appdirs.py',
   'PYMODULE'),
  ('pkg_resources._vendor.packaging.tags',
   '/home/vivallo/Programming '
   'Projects/PycharmProjects/venv/lib/python3.9/site-packages/pkg_resources/_vendor/packaging/tags.py',
   'PYMODULE'),
  ('distutils.util', '/usr/lib/python3.9/distutils/util.py', 'PYMODULE'),
  ('distutils.filelist',
   '/usr/lib/python3.9/distutils/filelist.py',
   'PYMODULE'),
  ('distutils.debug', '/usr/lib/python3.9/distutils/debug.py', 'PYMODULE'),
  ('distutils.file_util',
   '/usr/lib/python3.9/distutils/file_util.py',
   'PYMODULE'),
  ('distutils.dir_util',
   '/usr/lib/python3.9/distutils/dir_util.py',
   'PYMODULE'),
  ('py_compile', '/usr/lib/python3.9/py_compile.py', 'PYMODULE'),
  ('distutils.sysconfig',
   '/usr/lib/python3.9/distutils/sysconfig.py',
   'PYMODULE'),
  ('distutils.text_file',
   '/usr/lib/python3.9/distutils/text_file.py',
   'PYMODULE'),
  ('_osx_support', '/usr/lib/python3.9/_osx_support.py', 'PYMODULE'),
  ('_aix_support', '/usr/lib/python3.9/_aix_support.py', 'PYMODULE'),
  ('_bootsubprocess', '/usr/lib/python3.9/_bootsubprocess.py', 'PYMODULE'),
  ('distutils.log', '/usr/lib/python3.9/distutils/log.py', 'PYMODULE'),
  ('distutils', '/usr/lib/python3.9/distutils/__init__.py', 'PYMODULE'),
  ('_sysconfigdata__linux_x86_64-linux-gnu',
   '/usr/lib/python3.9/_sysconfigdata__linux_x86_64-linux-gnu.py',
   'PYMODULE'),
  ('distutils.spawn', '/usr/lib/python3.9/distutils/spawn.py', 'PYMODULE'),
  ('distutils.dep_util',
   '/usr/lib/python3.9/distutils/dep_util.py',
   'PYMODULE'),
  ('distutils.errors', '/usr/lib/python3.9/distutils/errors.py', 'PYMODULE'),
  ('pkg_resources._vendor.packaging',
   '/home/vivallo/Programming '
   'Projects/PycharmProjects/venv/lib/python3.9/site-packages/pkg_resources/_vendor/packaging/__init__.py',
   'PYMODULE'),
  ('pkg_resources._vendor.packaging.specifiers',
   '/home/vivallo/Programming '
   'Projects/PycharmProjects/venv/lib/python3.9/site-packages/pkg_resources/_vendor/packaging/specifiers.py',
   'PYMODULE'),
  ('pkg_resources._vendor.packaging.utils',
   '/home/vivallo/Programming '
   'Projects/PycharmProjects/venv/lib/python3.9/site-packages/pkg_resources/_vendor/packaging/utils.py',
   'PYMODULE'),
  ('pkg_resources._vendor.packaging._compat',
   '/home/vivallo/Programming '
   'Projects/PycharmProjects/venv/lib/python3.9/site-packages/pkg_resources/_vendor/packaging/_compat.py',
   'PYMODULE'),
  ('pkg_resources._vendor',
   '/home/vivallo/Programming '
   'Projects/PycharmProjects/venv/lib/python3.9/site-packages/pkg_resources/_vendor/__init__.py',
   'PYMODULE'),
  ('sysconfig', '/usr/lib/python3.9/sysconfig.py', 'PYMODULE'),
  ('pkg_resources.extern',
   '/home/vivallo/Programming '
   'Projects/PycharmProjects/venv/lib/python3.9/site-packages/pkg_resources/extern/__init__.py',
   'PYMODULE'),
  ('importlib.machinery',
   '/usr/lib/python3.9/importlib/machinery.py',
   'PYMODULE'),
  ('imp', '/usr/lib/python3.9/imp.py', 'PYMODULE'),
  ('importlib', '/usr/lib/python3.9/importlib/__init__.py', 'PYMODULE'),
  ('posixpath', '/usr/lib/python3.9/posixpath.py', 'PYMODULE'),
  ('genericpath', '/usr/lib/python3.9/genericpath.py', 'PYMODULE'),
  ('ntpath', '/usr/lib/python3.9/ntpath.py', 'PYMODULE'),
  ('inspect', '/usr/lib/python3.9/inspect.py', 'PYMODULE'),
  ('ast', '/usr/lib/python3.9/ast.py', 'PYMODULE'),
  ('textwrap', '/usr/lib/python3.9/textwrap.py', 'PYMODULE'),
  ('tempfile', '/usr/lib/python3.9/tempfile.py', 'PYMODULE'),
  ('email.parser', '/usr/lib/python3.9/email/parser.py', 'PYMODULE'),
  ('email.feedparser', '/usr/lib/python3.9/email/feedparser.py', 'PYMODULE'),
  ('plistlib', '/usr/lib/python3.9/plistlib.py', 'PYMODULE'),
  ('platform', '/usr/lib/python3.9/platform.py', 'PYMODULE'),
  ('pkgutil', '/usr/lib/python3.9/pkgutil.py', 'PYMODULE'),
  ('stat', '/usr/lib/python3.9/stat.py', 'PYMODULE'),
  ('zipimport', '/usr/lib/python3.9/zipimport.py', 'PYMODULE'),
  ('zipfile', '/usr/lib/python3.9/zipfile.py', 'PYMODULE'),
  ('pathlib', '/usr/lib/python3.9/pathlib.py', 'PYMODULE'),
  ('os', '/usr/lib/python3.9/os.py', 'PYMODULE'),
  ('_py_abc', '/usr/lib/python3.9/_py_abc.py', 'PYMODULE'),
  ('tracemalloc', '/usr/lib/python3.9/tracemalloc.py', 'PYMODULE'),
  ('stringprep', '/usr/lib/python3.9/stringprep.py', 'PYMODULE'),
  ('pygame',
   '/home/vivallo/Programming '
   'Projects/PycharmProjects/venv/lib/python3.9/site-packages/pygame/__init__.py',
   'PYMODULE'),
  ('pygame.colordict',
   '/home/vivallo/Programming '
   'Projects/PycharmProjects/venv/lib/python3.9/site-packages/pygame/colordict.py',
   'PYMODULE'),
  ('pygame.macosx',
   '/home/vivallo/Programming '
   'Projects/PycharmProjects/venv/lib/python3.9/site-packages/pygame/macosx.py',
   'PYMODULE'),
  ('pygame.pkgdata',
   '/home/vivallo/Programming '
   'Projects/PycharmProjects/venv/lib/python3.9/site-packages/pygame/pkgdata.py',
   'PYMODULE'),
  ('pygame.sndarray',
   '/home/vivallo/Programming '
   'Projects/PycharmProjects/venv/lib/python3.9/site-packages/pygame/sndarray.py',
   'PYMODULE'),
  ('pygame._numpysndarray',
   '/home/vivallo/Programming '
   'Projects/PycharmProjects/venv/lib/python3.9/site-packages/pygame/_numpysndarray.py',
   'PYMODULE'),
  ('pygame.surfarray',
   '/home/vivallo/Programming '
   'Projects/PycharmProjects/venv/lib/python3.9/site-packages/pygame/surfarray.py',
   'PYMODULE'),
  ('pygame._numpysurfarray',
   '/home/vivallo/Programming '
   'Projects/PycharmProjects/venv/lib/python3.9/site-packages/pygame/_numpysurfarray.py',
   'PYMODULE'),
  ('pygame.sysfont',
   '/home/vivallo/Programming '
   'Projects/PycharmProjects/venv/lib/python3.9/site-packages/pygame/sysfont.py',
   'PYMODULE'),
  ('xml.etree.ElementTree',
   '/usr/lib/python3.9/xml/etree/ElementTree.py',
   'PYMODULE'),
  ('xml.etree.cElementTree',
   '/usr/lib/python3.9/xml/etree/cElementTree.py',
   'PYMODULE'),
  ('xml.etree.ElementInclude',
   '/usr/lib/python3.9/xml/etree/ElementInclude.py',
   'PYMODULE'),
  ('xml.etree.ElementPath',
   '/usr/lib/python3.9/xml/etree/ElementPath.py',
   'PYMODULE'),
  ('xml.etree', '/usr/lib/python3.9/xml/etree/__init__.py', 'PYMODULE'),
  ('pygame.ftfont',
   '/home/vivallo/Programming '
   'Projects/PycharmProjects/venv/lib/python3.9/site-packages/pygame/ftfont.py',
   'PYMODULE'),
  ('pygame.threads',
   '/home/vivallo/Programming '
   'Projects/PycharmProjects/venv/lib/python3.9/site-packages/pygame/threads/__init__.py',
   'PYMODULE'),
  ('pygame.sprite',
   '/home/vivallo/Programming '
   'Projects/PycharmProjects/venv/lib/python3.9/site-packages/pygame/sprite.py',
   'PYMODULE'),
  ('pygame.cursors',
   '/home/vivallo/Programming '
   'Projects/PycharmProjects/venv/lib/python3.9/site-packages/pygame/cursors.py',
   'PYMODULE'),
  ('pygame.compat',
   '/home/vivallo/Programming '
   'Projects/PycharmProjects/venv/lib/python3.9/site-packages/pygame/compat.py',
   'PYMODULE'),
  ('pygame.version',
   '/home/vivallo/Programming '
   'Projects/PycharmProjects/venv/lib/python3.9/site-packages/pygame/version.py',
   'PYMODULE'),
  ('states.StateMachine',
   '/home/vivallo/Programming '
   'Projects/PycharmProjects/anagram-master/src/states/StateMachine.py',
   'PYMODULE'),
  ('states.ExitState',
   '/home/vivallo/Programming '
   'Projects/PycharmProjects/anagram-master/src/states/ExitState.py',
   'PYMODULE'),
  ('states.GamerOverState',
   '/home/vivallo/Programming '
   'Projects/PycharmProjects/anagram-master/src/states/GamerOverState.py',
   'PYMODULE'),
  ('src.util.Button',
   '/home/vivallo/Programming '
   'Projects/PycharmProjects/anagram-master/src/util/Button.py',
   'PYMODULE'),
  ('src.util', '-', 'PYMODULE'),
  ('src', '-', 'PYMODULE'),
  ('src.states.CountDownState',
   '/home/vivallo/Programming '
   'Projects/PycharmProjects/anagram-master/src/states/CountDownState.py',
   'PYMODULE'),
  ('src.states', '-', 'PYMODULE'),
  ('src.states.game_state.GameState',
   '/home/vivallo/Programming '
   'Projects/PycharmProjects/anagram-master/src/states/game_state/GameState.py',
   'PYMODULE'),
  ('src.states.game_state', '-', 'PYMODULE'),
  ('src.states.game_state.WordGenerator',
   '/home/vivallo/Programming '
   'Projects/PycharmProjects/anagram-master/src/states/game_state/WordGenerator.py',
   'PYMODULE'),
  ('json', '/usr/lib/python3.9/json/__init__.py', 'PYMODULE'),
  ('json.encoder', '/usr/lib/python3.9/json/encoder.py', 'PYMODULE'),
  ('json.decoder', '/usr/lib/python3.9/json/decoder.py', 'PYMODULE'),
  ('json.scanner', '/usr/lib/python3.9/json/scanner.py', 'PYMODULE'),
  ('states.State',
   '/home/vivallo/Programming '
   'Projects/PycharmProjects/anagram-master/src/states/State.py',
   'PYMODULE'),
  ('states.game_state.GameState',
   '/home/vivallo/Programming '
   'Projects/PycharmProjects/anagram-master/src/states/game_state/GameState.py',
   'PYMODULE'),
  ('states.game_state', '-', 'PYMODULE'),
  ('states', '-', 'PYMODULE'),
  ('states.MenuState',
   '/home/vivallo/Programming '
   'Projects/PycharmProjects/anagram-master/src/states/MenuState.py',
   'PYMODULE'),
  ('util.Button',
   '/home/vivallo/Programming '
   'Projects/PycharmProjects/anagram-master/src/util/Button.py',
   'PYMODULE'),
  ('util', '-', 'PYMODULE'),
  ('util.Util',
   '/home/vivallo/Programming '
   'Projects/PycharmProjects/anagram-master/src/util/Util.py',
   'PYMODULE')],
 [('libpython3.9.so.1.0', '/usr/lib/libpython3.9.so.1.0', 'BINARY'),
  ('ld-linux-x86-64.so.2', '/usr/lib64/ld-linux-x86-64.so.2', 'BINARY'),
  ('lib-dynload/unicodedata',
   '/usr/lib/python3.9/lib-dynload/unicodedata.cpython-39-x86_64-linux-gnu.so',
   'EXTENSION'),
  ('lib-dynload/select',
   '/usr/lib/python3.9/lib-dynload/select.cpython-39-x86_64-linux-gnu.so',
   'EXTENSION'),
  ('lib-dynload/math',
   '/usr/lib/python3.9/lib-dynload/math.cpython-39-x86_64-linux-gnu.so',
   'EXTENSION'),
  ('lib-dynload/binascii',
   '/usr/lib/python3.9/lib-dynload/binascii.cpython-39-x86_64-linux-gnu.so',
   'EXTENSION'),
  ('lib-dynload/_ssl',
   '/usr/lib/python3.9/lib-dynload/_ssl.cpython-39-x86_64-linux-gnu.so',
   'EXTENSION'),
  ('lib-dynload/_contextvars',
   '/usr/lib/python3.9/lib-dynload/_contextvars.cpython-39-x86_64-linux-gnu.so',
   'EXTENSION'),
  ('lib-dynload/_queue',
   '/usr/lib/python3.9/lib-dynload/_queue.cpython-39-x86_64-linux-gnu.so',
   'EXTENSION'),
  ('lib-dynload/mmap',
   '/usr/lib/python3.9/lib-dynload/mmap.cpython-39-x86_64-linux-gnu.so',
   'EXTENSION'),
  ('lib-dynload/_bisect',
   '/usr/lib/python3.9/lib-dynload/_bisect.cpython-39-x86_64-linux-gnu.so',
   'EXTENSION'),
  ('lib-dynload/_posixshmem',
   '/usr/lib/python3.9/lib-dynload/_posixshmem.cpython-39-x86_64-linux-gnu.so',
   'EXTENSION'),
  ('lib-dynload/_csv',
   '/usr/lib/python3.9/lib-dynload/_csv.cpython-39-x86_64-linux-gnu.so',
   'EXTENSION'),
  ('lib-dynload/resource',
   '/usr/lib/python3.9/lib-dynload/resource.cpython-39-x86_64-linux-gnu.so',
   'EXTENSION'),
  ('lib-dynload/_posixsubprocess',
   '/usr/lib/python3.9/lib-dynload/_posixsubprocess.cpython-39-x86_64-linux-gnu.so',
   'EXTENSION'),
  ('lib-dynload/_ctypes',
   '/usr/lib/python3.9/lib-dynload/_ctypes.cpython-39-x86_64-linux-gnu.so',
   'EXTENSION'),
  ('lib-dynload/array',
   '/usr/lib/python3.9/lib-dynload/array.cpython-39-x86_64-linux-gnu.so',
   'EXTENSION'),
  ('lib-dynload/_multiprocessing',
   '/usr/lib/python3.9/lib-dynload/_multiprocessing.cpython-39-x86_64-linux-gnu.so',
   'EXTENSION'),
  ('lib-dynload/zlib',
   '/usr/lib/python3.9/lib-dynload/zlib.cpython-39-x86_64-linux-gnu.so',
   'EXTENSION'),
  ('lib-dynload/pyexpat',
   '/usr/lib/python3.9/lib-dynload/pyexpat.cpython-39-x86_64-linux-gnu.so',
   'EXTENSION'),
  ('lib-dynload/termios',
   '/usr/lib/python3.9/lib-dynload/termios.cpython-39-x86_64-linux-gnu.so',
   'EXTENSION'),
  ('lib-dynload/_decimal',
   '/usr/lib/python3.9/lib-dynload/_decimal.cpython-39-x86_64-linux-gnu.so',
   'EXTENSION'),
  ('lib-dynload/_asyncio',
   '/usr/lib/python3.9/lib-dynload/_asyncio.cpython-39-x86_64-linux-gnu.so',
   'EXTENSION'),
  ('lib-dynload/_pickle',
   '/usr/lib/python3.9/lib-dynload/_pickle.cpython-39-x86_64-linux-gnu.so',
   'EXTENSION'),
  ('lib-dynload/_struct',
   '/usr/lib/python3.9/lib-dynload/_struct.cpython-39-x86_64-linux-gnu.so',
   'EXTENSION'),
  ('lib-dynload/_hashlib',
   '/usr/lib/python3.9/lib-dynload/_hashlib.cpython-39-x86_64-linux-gnu.so',
   'EXTENSION'),
  ('lib-dynload/_sha3',
   '/usr/lib/python3.9/lib-dynload/_sha3.cpython-39-x86_64-linux-gnu.so',
   'EXTENSION'),
  ('lib-dynload/_blake2',
   '/usr/lib/python3.9/lib-dynload/_blake2.cpython-39-x86_64-linux-gnu.so',
   'EXTENSION'),
  ('lib-dynload/_sha512',
   '/usr/lib/python3.9/lib-dynload/_sha512.cpython-39-x86_64-linux-gnu.so',
   'EXTENSION'),
  ('lib-dynload/_sha256',
   '/usr/lib/python3.9/lib-dynload/_sha256.cpython-39-x86_64-linux-gnu.so',
   'EXTENSION'),
  ('lib-dynload/_md5',
   '/usr/lib/python3.9/lib-dynload/_md5.cpython-39-x86_64-linux-gnu.so',
   'EXTENSION'),
  ('lib-dynload/_sha1',
   '/usr/lib/python3.9/lib-dynload/_sha1.cpython-39-x86_64-linux-gnu.so',
   'EXTENSION'),
  ('lib-dynload/_statistics',
   '/usr/lib/python3.9/lib-dynload/_statistics.cpython-39-x86_64-linux-gnu.so',
   'EXTENSION'),
  ('lib-dynload/_random',
   '/usr/lib/python3.9/lib-dynload/_random.cpython-39-x86_64-linux-gnu.so',
   'EXTENSION'),
  ('lib-dynload/_uuid',
   '/usr/lib/python3.9/lib-dynload/_uuid.cpython-39-x86_64-linux-gnu.so',
   'EXTENSION'),
  ('lib-dynload/_socket',
   '/usr/lib/python3.9/lib-dynload/_socket.cpython-39-x86_64-linux-gnu.so',
   'EXTENSION'),
  ('lib-dynload/grp',
   '/usr/lib/python3.9/lib-dynload/grp.cpython-39-x86_64-linux-gnu.so',
   'EXTENSION'),
  ('lib-dynload/_lzma',
   '/usr/lib/python3.9/lib-dynload/_lzma.cpython-39-x86_64-linux-gnu.so',
   'EXTENSION'),
  ('lib-dynload/_bz2',
   '/usr/lib/python3.9/lib-dynload/_bz2.cpython-39-x86_64-linux-gnu.so',
   'EXTENSION'),
  ('lib-dynload/readline',
   '/usr/lib/python3.9/lib-dynload/readline.cpython-39-x86_64-linux-gnu.so',
   'EXTENSION'),
  ('lib-dynload/_opcode',
   '/usr/lib/python3.9/lib-dynload/_opcode.cpython-39-x86_64-linux-gnu.so',
   'EXTENSION'),
  ('lib-dynload/_datetime',
   '/usr/lib/python3.9/lib-dynload/_datetime.cpython-39-x86_64-linux-gnu.so',
   'EXTENSION'),
  ('lib-dynload/_multibytecodec',
   '/usr/lib/python3.9/lib-dynload/_multibytecodec.cpython-39-x86_64-linux-gnu.so',
   'EXTENSION'),
  ('lib-dynload/_codecs_iso2022',
   '/usr/lib/python3.9/lib-dynload/_codecs_iso2022.cpython-39-x86_64-linux-gnu.so',
   'EXTENSION'),
  ('lib-dynload/_codecs_jp',
   '/usr/lib/python3.9/lib-dynload/_codecs_jp.cpython-39-x86_64-linux-gnu.so',
   'EXTENSION'),
  ('lib-dynload/_codecs_cn',
   '/usr/lib/python3.9/lib-dynload/_codecs_cn.cpython-39-x86_64-linux-gnu.so',
   'EXTENSION'),
  ('lib-dynload/_codecs_kr',
   '/usr/lib/python3.9/lib-dynload/_codecs_kr.cpython-39-x86_64-linux-gnu.so',
   'EXTENSION'),
  ('lib-dynload/_codecs_tw',
   '/usr/lib/python3.9/lib-dynload/_codecs_tw.cpython-39-x86_64-linux-gnu.so',
   'EXTENSION'),
  ('lib-dynload/_codecs_hk',
   '/usr/lib/python3.9/lib-dynload/_codecs_hk.cpython-39-x86_64-linux-gnu.so',
   'EXTENSION'),
  ('lib-dynload/_heapq',
   '/usr/lib/python3.9/lib-dynload/_heapq.cpython-39-x86_64-linux-gnu.so',
   'EXTENSION'),
  ('pygame.imageext',
   '/home/vivallo/Programming '
   'Projects/PycharmProjects/venv/lib/python3.9/site-packages/pygame/imageext.cpython-39-x86_64-linux-gnu.so',
   'EXTENSION'),
  ('pygame.fastevent',
   '/home/vivallo/Programming '
   'Projects/PycharmProjects/venv/lib/python3.9/site-packages/pygame/fastevent.cpython-39-x86_64-linux-gnu.so',
   'EXTENSION'),
  ('pygame.scrap',
   '/home/vivallo/Programming '
   'Projects/PycharmProjects/venv/lib/python3.9/site-packages/pygame/scrap.cpython-39-x86_64-linux-gnu.so',
   'EXTENSION'),
  ('pygame.mixer',
   '/home/vivallo/Programming '
   'Projects/PycharmProjects/venv/lib/python3.9/site-packages/pygame/mixer.cpython-39-x86_64-linux-gnu.so',
   'EXTENSION'),
  ('pygame.mixer_music',
   '/home/vivallo/Programming '
   'Projects/PycharmProjects/venv/lib/python3.9/site-packages/pygame/mixer_music.cpython-39-x86_64-linux-gnu.so',
   'EXTENSION'),
  ('lib-dynload/_elementtree',
   '/usr/lib/python3.9/lib-dynload/_elementtree.cpython-39-x86_64-linux-gnu.so',
   'EXTENSION'),
  ('pygame.font',
   '/home/vivallo/Programming '
   'Projects/PycharmProjects/venv/lib/python3.9/site-packages/pygame/font.cpython-39-x86_64-linux-gnu.so',
   'EXTENSION'),
  ('pygame._freetype',
   '/home/vivallo/Programming '
   'Projects/PycharmProjects/venv/lib/python3.9/site-packages/pygame/_freetype.cpython-39-x86_64-linux-gnu.so',
   'EXTENSION'),
  ('pygame.transform',
   '/home/vivallo/Programming '
   'Projects/PycharmProjects/venv/lib/python3.9/site-packages/pygame/transform.cpython-39-x86_64-linux-gnu.so',
   'EXTENSION'),
  ('pygame.time',
   '/home/vivallo/Programming '
   'Projects/PycharmProjects/venv/lib/python3.9/site-packages/pygame/time.cpython-39-x86_64-linux-gnu.so',
   'EXTENSION'),
  ('pygame.pixelarray',
   '/home/vivallo/Programming '
   'Projects/PycharmProjects/venv/lib/python3.9/site-packages/pygame/pixelarray.cpython-39-x86_64-linux-gnu.so',
   'EXTENSION'),
  ('pygame.mask',
   '/home/vivallo/Programming '
   'Projects/PycharmProjects/venv/lib/python3.9/site-packages/pygame/mask.cpython-39-x86_64-linux-gnu.so',
   'EXTENSION'),
  ('pygame.surface',
   '/home/vivallo/Programming '
   'Projects/PycharmProjects/venv/lib/python3.9/site-packages/pygame/surface.cpython-39-x86_64-linux-gnu.so',
   'EXTENSION'),
  ('pygame.pixelcopy',
   '/home/vivallo/Programming '
   'Projects/PycharmProjects/venv/lib/python3.9/site-packages/pygame/pixelcopy.cpython-39-x86_64-linux-gnu.so',
   'EXTENSION'),
  ('pygame.mouse',
   '/home/vivallo/Programming '
   'Projects/PycharmProjects/venv/lib/python3.9/site-packages/pygame/mouse.cpython-39-x86_64-linux-gnu.so',
   'EXTENSION'),
  ('pygame.key',
   '/home/vivallo/Programming '
   'Projects/PycharmProjects/venv/lib/python3.9/site-packages/pygame/key.cpython-39-x86_64-linux-gnu.so',
   'EXTENSION'),
  ('pygame.joystick',
   '/home/vivallo/Programming '
   'Projects/PycharmProjects/venv/lib/python3.9/site-packages/pygame/joystick.cpython-39-x86_64-linux-gnu.so',
   'EXTENSION'),
  ('pygame.image',
   '/home/vivallo/Programming '
   'Projects/PycharmProjects/venv/lib/python3.9/site-packages/pygame/image.cpython-39-x86_64-linux-gnu.so',
   'EXTENSION'),
  ('pygame.event',
   '/home/vivallo/Programming '
   'Projects/PycharmProjects/venv/lib/python3.9/site-packages/pygame/event.cpython-39-x86_64-linux-gnu.so',
   'EXTENSION'),
  ('pygame.draw',
   '/home/vivallo/Programming '
   'Projects/PycharmProjects/venv/lib/python3.9/site-packages/pygame/draw.cpython-39-x86_64-linux-gnu.so',
   'EXTENSION'),
  ('pygame.display',
   '/home/vivallo/Programming '
   'Projects/PycharmProjects/venv/lib/python3.9/site-packages/pygame/display.cpython-39-x86_64-linux-gnu.so',
   'EXTENSION'),
  ('pygame.math',
   '/home/vivallo/Programming '
   'Projects/PycharmProjects/venv/lib/python3.9/site-packages/pygame/math.cpython-39-x86_64-linux-gnu.so',
   'EXTENSION'),
  ('pygame.bufferproxy',
   '/home/vivallo/Programming '
   'Projects/PycharmProjects/venv/lib/python3.9/site-packages/pygame/bufferproxy.cpython-39-x86_64-linux-gnu.so',
   'EXTENSION'),
  ('pygame.color',
   '/home/vivallo/Programming '
   'Projects/PycharmProjects/venv/lib/python3.9/site-packages/pygame/color.cpython-39-x86_64-linux-gnu.so',
   'EXTENSION'),
  ('pygame.surflock',
   '/home/vivallo/Programming '
   'Projects/PycharmProjects/venv/lib/python3.9/site-packages/pygame/surflock.cpython-39-x86_64-linux-gnu.so',
   'EXTENSION'),
  ('pygame.rwobject',
   '/home/vivallo/Programming '
   'Projects/PycharmProjects/venv/lib/python3.9/site-packages/pygame/rwobject.cpython-39-x86_64-linux-gnu.so',
   'EXTENSION'),
  ('pygame.rect',
   '/home/vivallo/Programming '
   'Projects/PycharmProjects/venv/lib/python3.9/site-packages/pygame/rect.cpython-39-x86_64-linux-gnu.so',
   'EXTENSION'),
  ('pygame.constants',
   '/home/vivallo/Programming '
   'Projects/PycharmProjects/venv/lib/python3.9/site-packages/pygame/constants.cpython-39-x86_64-linux-gnu.so',
   'EXTENSION'),
  ('pygame.base',
   '/home/vivallo/Programming '
   'Projects/PycharmProjects/venv/lib/python3.9/site-packages/pygame/base.cpython-39-x86_64-linux-gnu.so',
   'EXTENSION'),
  ('lib-dynload/_json',
   '/usr/lib/python3.9/lib-dynload/_json.cpython-39-x86_64-linux-gnu.so',
   'EXTENSION'),
  ('libz.so.1', '/usr/lib/libz.so.1', 'BINARY'),
  ('libssl.so.1.1', '/usr/lib/libssl.so.1.1', 'BINARY'),
  ('libcrypto.so.1.1', '/usr/lib/libcrypto.so.1.1', 'BINARY'),
  ('libffi.so.7', '/usr/lib/libffi.so.7', 'BINARY'),
  ('libexpat.so.1', '/usr/lib/libexpat.so.1', 'BINARY'),
  ('libuuid.so.1', '/usr/lib/libuuid.so.1', 'BINARY'),
  ('liblzma.so.5', '/usr/lib/liblzma.so.5', 'BINARY'),
  ('libbz2.so.1.0', '/usr/lib/libbz2.so.1.0', 'BINARY'),
  ('libncursesw.so.6', '/usr/lib/libncursesw.so.6', 'BINARY'),
  ('libreadline.so.8', '/usr/lib/libreadline.so.8', 'BINARY'),
  ('libSDL2_image-2-554041b7.0.so.0.2.3',
   '/home/vivallo/Programming '
   'Projects/PycharmProjects/venv/lib/python3.9/site-packages/pygame/../pygame.libs/libSDL2_image-2-554041b7.0.so.0.2.3',
   'BINARY'),
  ('libSDL2-2-d6813302.0.so.0.14.0',
   '/home/vivallo/Programming '
   'Projects/PycharmProjects/venv/lib/python3.9/site-packages/pygame/../pygame.libs/libSDL2-2-d6813302.0.so.0.14.0',
   'BINARY'),
  ('libpng16-b14e7f97.so.16.37.0',
   '/home/vivallo/Programming '
   'Projects/PycharmProjects/venv/lib/python3.9/site-packages/pygame/../pygame.libs/libpng16-b14e7f97.so.16.37.0',
   'BINARY'),
  ('libjpeg-bd53fca1.so.62.0.0',
   '/home/vivallo/Programming '
   'Projects/PycharmProjects/venv/lib/python3.9/site-packages/pygame/../pygame.libs/libjpeg-bd53fca1.so.62.0.0',
   'BINARY'),
  ('libtiff-97e44e95.so.3.8.2',
   '/home/vivallo/Programming '
   'Projects/PycharmProjects/venv/lib/python3.9/site-packages/pygame/../pygame.libs/libtiff-97e44e95.so.3.8.2',
   'BINARY'),
  ('libz-a147dcb0.so.1.2.3',
   '/home/vivallo/Programming '
   'Projects/PycharmProjects/venv/lib/python3.9/site-packages/pygame/../pygame.libs/libz-a147dcb0.so.1.2.3',
   'BINARY'),
  ('libwebp-582c46b3.so.7.1.0',
   '/home/vivallo/Programming '
   'Projects/PycharmProjects/venv/lib/python3.9/site-packages/pygame/../pygame.libs/libwebp-582c46b3.so.7.1.0',
   'BINARY'),
  ('libX11.so.6', '/usr/lib/libX11.so.6', 'BINARY'),
  ('libXau.so.6', '/usr/lib/libXau.so.6', 'BINARY'),
  ('libXdmcp.so.6', '/usr/lib/libXdmcp.so.6', 'BINARY'),
  ('libvorbis-205f0f59.so.0.4.8',
   '/home/vivallo/Programming '
   'Projects/PycharmProjects/venv/lib/python3.9/site-packages/pygame/../pygame.libs/libvorbis-205f0f59.so.0.4.8',
   'BINARY'),
  ('libogg-b51fbe74.so.0.8.4',
   '/home/vivallo/Programming '
   'Projects/PycharmProjects/venv/lib/python3.9/site-packages/pygame/../pygame.libs/libogg-b51fbe74.so.0.8.4',
   'BINARY'),
  ('libSDL2_mixer-2-5dc902ba.0.so.0.2.2',
   '/home/vivallo/Programming '
   'Projects/PycharmProjects/venv/lib/python3.9/site-packages/pygame/../pygame.libs/libSDL2_mixer-2-5dc902ba.0.so.0.2.2',
   'BINARY'),
  ('libvorbisfile-f207f3a6.so.3.3.7',
   '/home/vivallo/Programming '
   'Projects/PycharmProjects/venv/lib/python3.9/site-packages/pygame/../pygame.libs/libvorbisfile-f207f3a6.so.3.3.7',
   'BINARY'),
  ('libmikmod-fabcac29.so.2.0.4',
   '/home/vivallo/Programming '
   'Projects/PycharmProjects/venv/lib/python3.9/site-packages/pygame/../pygame.libs/libmikmod-fabcac29.so.2.0.4',
   'BINARY'),
  ('libFLAC-bf6d1292.so.8.3.0',
   '/home/vivallo/Programming '
   'Projects/PycharmProjects/venv/lib/python3.9/site-packages/pygame/../pygame.libs/libFLAC-bf6d1292.so.8.3.0',
   'BINARY'),
  ('libfreetype-2d39c124.so.6.17.1',
   '/home/vivallo/Programming '
   'Projects/PycharmProjects/venv/lib/python3.9/site-packages/pygame/../pygame.libs/libfreetype-2d39c124.so.6.17.1',
   'BINARY'),
  ('libSDL2_ttf-2-dd80ed71.0.so.0.14.1',
   '/home/vivallo/Programming '
   'Projects/PycharmProjects/venv/lib/python3.9/site-packages/pygame/../pygame.libs/libSDL2_ttf-2-dd80ed71.0.so.0.14.1',
   'BINARY')],
 [],
 [],
 [('base_library.zip',
   '/home/vivallo/Programming '
   'Projects/PycharmProjects/anagram-master/build/main/base_library.zip',
   'DATA'),
  ('pygame/freesansbold.ttf',
   '/home/vivallo/Programming '
   'Projects/PycharmProjects/venv/lib/python3.9/site-packages/pygame/freesansbold.ttf',
   'DATA'),
  ('pygame/pygame_icon.bmp',
   '/home/vivallo/Programming '
   'Projects/PycharmProjects/venv/lib/python3.9/site-packages/pygame/pygame_icon.bmp',
   'DATA')],
 [])
