('/home/vivallo/Programming Projects/PycharmProjects/anagram-master/dist/main',
 True,
 False,
 False,
 None,
 None,
 False,
 False,
 None,
 True,
 None,
 None,
 None,
 'main.pkg',
 [('PYZ-00.pyz',
   '/home/vivallo/Programming '
   'Projects/PycharmProjects/anagram-master/build/main/PYZ-00.pyz',
   'PYZ'),
  ('lib-dynload/_struct',
   '/usr/lib/python3.9/lib-dynload/_struct.cpython-39-x86_64-linux-gnu.so',
   'EXTENSION'),
  ('lib-dynload/zlib',
   '/usr/lib/python3.9/lib-dynload/zlib.cpython-39-x86_64-linux-gnu.so',
   'EXTENSION'),
  ('struct',
   '/home/vivallo/Programming '
   'Projects/PycharmProjects/anagram-master/build/main/localpycos/struct.pyo',
   'PYMODULE'),
  ('pyimod01_os_path',
   '/home/vivallo/Programming '
   'Projects/PycharmProjects/venv/lib/python3.9/site-packages/PyInstaller/loader/pyimod01_os_path.pyc',
   'PYMODULE'),
  ('pyimod02_archive',
   '/home/vivallo/Programming '
   'Projects/PycharmProjects/venv/lib/python3.9/site-packages/PyInstaller/loader/pyimod02_archive.pyc',
   'PYMODULE'),
  ('pyimod03_importers',
   '/home/vivallo/Programming '
   'Projects/PycharmProjects/venv/lib/python3.9/site-packages/PyInstaller/loader/pyimod03_importers.pyc',
   'PYMODULE'),
  ('pyimod04_ctypes',
   '/home/vivallo/Programming '
   'Projects/PycharmProjects/venv/lib/python3.9/site-packages/PyInstaller/loader/pyimod04_ctypes.pyc',
   'PYMODULE'),
  ('pyiboot01_bootstrap',
   '/home/vivallo/Programming '
   'Projects/PycharmProjects/venv/lib/python3.9/site-packages/PyInstaller/loader/pyiboot01_bootstrap.py',
   'PYSOURCE'),
  ('pyi_rth_pkgutil',
   '/home/vivallo/Programming '
   'Projects/PycharmProjects/venv/lib/python3.9/site-packages/PyInstaller/hooks/rthooks/pyi_rth_pkgutil.py',
   'PYSOURCE'),
  ('pyi_rth_multiprocessing',
   '/home/vivallo/Programming '
   'Projects/PycharmProjects/venv/lib/python3.9/site-packages/PyInstaller/hooks/rthooks/pyi_rth_multiprocessing.py',
   'PYSOURCE'),
  ('pyi_rth_inspect',
   '/home/vivallo/Programming '
   'Projects/PycharmProjects/venv/lib/python3.9/site-packages/PyInstaller/hooks/rthooks/pyi_rth_inspect.py',
   'PYSOURCE'),
  ('pyi_rth_pkgres',
   '/home/vivallo/Programming '
   'Projects/PycharmProjects/venv/lib/python3.9/site-packages/PyInstaller/hooks/rthooks/pyi_rth_pkgres.py',
   'PYSOURCE'),
  ('main',
   '/home/vivallo/Programming '
   'Projects/PycharmProjects/anagram-master/src/main.py',
   'PYSOURCE'),
  ('libpython3.9.so.1.0', '/usr/lib/libpython3.9.so.1.0', 'BINARY'),
  ('ld-linux-x86-64.so.2', '/usr/lib64/ld-linux-x86-64.so.2', 'BINARY'),
  ('lib-dynload/unicodedata',
   '/usr/lib/python3.9/lib-dynload/unicodedata.cpython-39-x86_64-linux-gnu.so',
   'EXTENSION'),
  ('lib-dynload/select',
   '/usr/lib/python3.9/lib-dynload/select.cpython-39-x86_64-linux-gnu.so',
   'EXTENSION'),
  ('lib-dynload/math',
   '/usr/lib/python3.9/lib-dynload/math.cpython-39-x86_64-linux-gnu.so',
   'EXTENSION'),
  ('lib-dynload/binascii',
   '/usr/lib/python3.9/lib-dynload/binascii.cpython-39-x86_64-linux-gnu.so',
   'EXTENSION'),
  ('lib-dynload/_ssl',
   '/usr/lib/python3.9/lib-dynload/_ssl.cpython-39-x86_64-linux-gnu.so',
   'EXTENSION'),
  ('lib-dynload/_contextvars',
   '/usr/lib/python3.9/lib-dynload/_contextvars.cpython-39-x86_64-linux-gnu.so',
   'EXTENSION'),
  ('lib-dynload/_queue',
   '/usr/lib/python3.9/lib-dynload/_queue.cpython-39-x86_64-linux-gnu.so',
   'EXTENSION'),
  ('lib-dynload/mmap',
   '/usr/lib/python3.9/lib-dynload/mmap.cpython-39-x86_64-linux-gnu.so',
   'EXTENSION'),
  ('lib-dynload/_bisect',
   '/usr/lib/python3.9/lib-dynload/_bisect.cpython-39-x86_64-linux-gnu.so',
   'EXTENSION'),
  ('lib-dynload/_posixshmem',
   '/usr/lib/python3.9/lib-dynload/_posixshmem.cpython-39-x86_64-linux-gnu.so',
   'EXTENSION'),
  ('lib-dynload/_csv',
   '/usr/lib/python3.9/lib-dynload/_csv.cpython-39-x86_64-linux-gnu.so',
   'EXTENSION'),
  ('lib-dynload/resource',
   '/usr/lib/python3.9/lib-dynload/resource.cpython-39-x86_64-linux-gnu.so',
   'EXTENSION'),
  ('lib-dynload/_posixsubprocess',
   '/usr/lib/python3.9/lib-dynload/_posixsubprocess.cpython-39-x86_64-linux-gnu.so',
   'EXTENSION'),
  ('lib-dynload/_ctypes',
   '/usr/lib/python3.9/lib-dynload/_ctypes.cpython-39-x86_64-linux-gnu.so',
   'EXTENSION'),
  ('lib-dynload/array',
   '/usr/lib/python3.9/lib-dynload/array.cpython-39-x86_64-linux-gnu.so',
   'EXTENSION'),
  ('lib-dynload/_multiprocessing',
   '/usr/lib/python3.9/lib-dynload/_multiprocessing.cpython-39-x86_64-linux-gnu.so',
   'EXTENSION'),
  ('lib-dynload/pyexpat',
   '/usr/lib/python3.9/lib-dynload/pyexpat.cpython-39-x86_64-linux-gnu.so',
   'EXTENSION'),
  ('lib-dynload/termios',
   '/usr/lib/python3.9/lib-dynload/termios.cpython-39-x86_64-linux-gnu.so',
   'EXTENSION'),
  ('lib-dynload/_decimal',
   '/usr/lib/python3.9/lib-dynload/_decimal.cpython-39-x86_64-linux-gnu.so',
   'EXTENSION'),
  ('lib-dynload/_asyncio',
   '/usr/lib/python3.9/lib-dynload/_asyncio.cpython-39-x86_64-linux-gnu.so',
   'EXTENSION'),
  ('lib-dynload/_pickle',
   '/usr/lib/python3.9/lib-dynload/_pickle.cpython-39-x86_64-linux-gnu.so',
   'EXTENSION'),
  ('lib-dynload/_hashlib',
   '/usr/lib/python3.9/lib-dynload/_hashlib.cpython-39-x86_64-linux-gnu.so',
   'EXTENSION'),
  ('lib-dynload/_sha3',
   '/usr/lib/python3.9/lib-dynload/_sha3.cpython-39-x86_64-linux-gnu.so',
   'EXTENSION'),
  ('lib-dynload/_blake2',
   '/usr/lib/python3.9/lib-dynload/_blake2.cpython-39-x86_64-linux-gnu.so',
   'EXTENSION'),
  ('lib-dynload/_sha512',
   '/usr/lib/python3.9/lib-dynload/_sha512.cpython-39-x86_64-linux-gnu.so',
   'EXTENSION'),
  ('lib-dynload/_sha256',
   '/usr/lib/python3.9/lib-dynload/_sha256.cpython-39-x86_64-linux-gnu.so',
   'EXTENSION'),
  ('lib-dynload/_md5',
   '/usr/lib/python3.9/lib-dynload/_md5.cpython-39-x86_64-linux-gnu.so',
   'EXTENSION'),
  ('lib-dynload/_sha1',
   '/usr/lib/python3.9/lib-dynload/_sha1.cpython-39-x86_64-linux-gnu.so',
   'EXTENSION'),
  ('lib-dynload/_statistics',
   '/usr/lib/python3.9/lib-dynload/_statistics.cpython-39-x86_64-linux-gnu.so',
   'EXTENSION'),
  ('lib-dynload/_random',
   '/usr/lib/python3.9/lib-dynload/_random.cpython-39-x86_64-linux-gnu.so',
   'EXTENSION'),
  ('lib-dynload/_uuid',
   '/usr/lib/python3.9/lib-dynload/_uuid.cpython-39-x86_64-linux-gnu.so',
   'EXTENSION'),
  ('lib-dynload/_socket',
   '/usr/lib/python3.9/lib-dynload/_socket.cpython-39-x86_64-linux-gnu.so',
   'EXTENSION'),
  ('lib-dynload/grp',
   '/usr/lib/python3.9/lib-dynload/grp.cpython-39-x86_64-linux-gnu.so',
   'EXTENSION'),
  ('lib-dynload/_lzma',
   '/usr/lib/python3.9/lib-dynload/_lzma.cpython-39-x86_64-linux-gnu.so',
   'EXTENSION'),
  ('lib-dynload/_bz2',
   '/usr/lib/python3.9/lib-dynload/_bz2.cpython-39-x86_64-linux-gnu.so',
   'EXTENSION'),
  ('lib-dynload/readline',
   '/usr/lib/python3.9/lib-dynload/readline.cpython-39-x86_64-linux-gnu.so',
   'EXTENSION'),
  ('lib-dynload/_opcode',
   '/usr/lib/python3.9/lib-dynload/_opcode.cpython-39-x86_64-linux-gnu.so',
   'EXTENSION'),
  ('lib-dynload/_datetime',
   '/usr/lib/python3.9/lib-dynload/_datetime.cpython-39-x86_64-linux-gnu.so',
   'EXTENSION'),
  ('lib-dynload/_multibytecodec',
   '/usr/lib/python3.9/lib-dynload/_multibytecodec.cpython-39-x86_64-linux-gnu.so',
   'EXTENSION'),
  ('lib-dynload/_codecs_iso2022',
   '/usr/lib/python3.9/lib-dynload/_codecs_iso2022.cpython-39-x86_64-linux-gnu.so',
   'EXTENSION'),
  ('lib-dynload/_codecs_jp',
   '/usr/lib/python3.9/lib-dynload/_codecs_jp.cpython-39-x86_64-linux-gnu.so',
   'EXTENSION'),
  ('lib-dynload/_codecs_cn',
   '/usr/lib/python3.9/lib-dynload/_codecs_cn.cpython-39-x86_64-linux-gnu.so',
   'EXTENSION'),
  ('lib-dynload/_codecs_kr',
   '/usr/lib/python3.9/lib-dynload/_codecs_kr.cpython-39-x86_64-linux-gnu.so',
   'EXTENSION'),
  ('lib-dynload/_codecs_tw',
   '/usr/lib/python3.9/lib-dynload/_codecs_tw.cpython-39-x86_64-linux-gnu.so',
   'EXTENSION'),
  ('lib-dynload/_codecs_hk',
   '/usr/lib/python3.9/lib-dynload/_codecs_hk.cpython-39-x86_64-linux-gnu.so',
   'EXTENSION'),
  ('lib-dynload/_heapq',
   '/usr/lib/python3.9/lib-dynload/_heapq.cpython-39-x86_64-linux-gnu.so',
   'EXTENSION'),
  ('pygame.imageext',
   '/home/vivallo/Programming '
   'Projects/PycharmProjects/venv/lib/python3.9/site-packages/pygame/imageext.cpython-39-x86_64-linux-gnu.so',
   'EXTENSION'),
  ('pygame.fastevent',
   '/home/vivallo/Programming '
   'Projects/PycharmProjects/venv/lib/python3.9/site-packages/pygame/fastevent.cpython-39-x86_64-linux-gnu.so',
   'EXTENSION'),
  ('pygame.scrap',
   '/home/vivallo/Programming '
   'Projects/PycharmProjects/venv/lib/python3.9/site-packages/pygame/scrap.cpython-39-x86_64-linux-gnu.so',
   'EXTENSION'),
  ('pygame.mixer',
   '/home/vivallo/Programming '
   'Projects/PycharmProjects/venv/lib/python3.9/site-packages/pygame/mixer.cpython-39-x86_64-linux-gnu.so',
   'EXTENSION'),
  ('pygame.mixer_music',
   '/home/vivallo/Programming '
   'Projects/PycharmProjects/venv/lib/python3.9/site-packages/pygame/mixer_music.cpython-39-x86_64-linux-gnu.so',
   'EXTENSION'),
  ('lib-dynload/_elementtree',
   '/usr/lib/python3.9/lib-dynload/_elementtree.cpython-39-x86_64-linux-gnu.so',
   'EXTENSION'),
  ('pygame.font',
   '/home/vivallo/Programming '
   'Projects/PycharmProjects/venv/lib/python3.9/site-packages/pygame/font.cpython-39-x86_64-linux-gnu.so',
   'EXTENSION'),
  ('pygame._freetype',
   '/home/vivallo/Programming '
   'Projects/PycharmProjects/venv/lib/python3.9/site-packages/pygame/_freetype.cpython-39-x86_64-linux-gnu.so',
   'EXTENSION'),
  ('pygame.transform',
   '/home/vivallo/Programming '
   'Projects/PycharmProjects/venv/lib/python3.9/site-packages/pygame/transform.cpython-39-x86_64-linux-gnu.so',
   'EXTENSION'),
  ('pygame.time',
   '/home/vivallo/Programming '
   'Projects/PycharmProjects/venv/lib/python3.9/site-packages/pygame/time.cpython-39-x86_64-linux-gnu.so',
   'EXTENSION'),
  ('pygame.pixelarray',
   '/home/vivallo/Programming '
   'Projects/PycharmProjects/venv/lib/python3.9/site-packages/pygame/pixelarray.cpython-39-x86_64-linux-gnu.so',
   'EXTENSION'),
  ('pygame.mask',
   '/home/vivallo/Programming '
   'Projects/PycharmProjects/venv/lib/python3.9/site-packages/pygame/mask.cpython-39-x86_64-linux-gnu.so',
   'EXTENSION'),
  ('pygame.surface',
   '/home/vivallo/Programming '
   'Projects/PycharmProjects/venv/lib/python3.9/site-packages/pygame/surface.cpython-39-x86_64-linux-gnu.so',
   'EXTENSION'),
  ('pygame.pixelcopy',
   '/home/vivallo/Programming '
   'Projects/PycharmProjects/venv/lib/python3.9/site-packages/pygame/pixelcopy.cpython-39-x86_64-linux-gnu.so',
   'EXTENSION'),
  ('pygame.mouse',
   '/home/vivallo/Programming '
   'Projects/PycharmProjects/venv/lib/python3.9/site-packages/pygame/mouse.cpython-39-x86_64-linux-gnu.so',
   'EXTENSION'),
  ('pygame.key',
   '/home/vivallo/Programming '
   'Projects/PycharmProjects/venv/lib/python3.9/site-packages/pygame/key.cpython-39-x86_64-linux-gnu.so',
   'EXTENSION'),
  ('pygame.joystick',
   '/home/vivallo/Programming '
   'Projects/PycharmProjects/venv/lib/python3.9/site-packages/pygame/joystick.cpython-39-x86_64-linux-gnu.so',
   'EXTENSION'),
  ('pygame.image',
   '/home/vivallo/Programming '
   'Projects/PycharmProjects/venv/lib/python3.9/site-packages/pygame/image.cpython-39-x86_64-linux-gnu.so',
   'EXTENSION'),
  ('pygame.event',
   '/home/vivallo/Programming '
   'Projects/PycharmProjects/venv/lib/python3.9/site-packages/pygame/event.cpython-39-x86_64-linux-gnu.so',
   'EXTENSION'),
  ('pygame.draw',
   '/home/vivallo/Programming '
   'Projects/PycharmProjects/venv/lib/python3.9/site-packages/pygame/draw.cpython-39-x86_64-linux-gnu.so',
   'EXTENSION'),
  ('pygame.display',
   '/home/vivallo/Programming '
   'Projects/PycharmProjects/venv/lib/python3.9/site-packages/pygame/display.cpython-39-x86_64-linux-gnu.so',
   'EXTENSION'),
  ('pygame.math',
   '/home/vivallo/Programming '
   'Projects/PycharmProjects/venv/lib/python3.9/site-packages/pygame/math.cpython-39-x86_64-linux-gnu.so',
   'EXTENSION'),
  ('pygame.bufferproxy',
   '/home/vivallo/Programming '
   'Projects/PycharmProjects/venv/lib/python3.9/site-packages/pygame/bufferproxy.cpython-39-x86_64-linux-gnu.so',
   'EXTENSION'),
  ('pygame.color',
   '/home/vivallo/Programming '
   'Projects/PycharmProjects/venv/lib/python3.9/site-packages/pygame/color.cpython-39-x86_64-linux-gnu.so',
   'EXTENSION'),
  ('pygame.surflock',
   '/home/vivallo/Programming '
   'Projects/PycharmProjects/venv/lib/python3.9/site-packages/pygame/surflock.cpython-39-x86_64-linux-gnu.so',
   'EXTENSION'),
  ('pygame.rwobject',
   '/home/vivallo/Programming '
   'Projects/PycharmProjects/venv/lib/python3.9/site-packages/pygame/rwobject.cpython-39-x86_64-linux-gnu.so',
   'EXTENSION'),
  ('pygame.rect',
   '/home/vivallo/Programming '
   'Projects/PycharmProjects/venv/lib/python3.9/site-packages/pygame/rect.cpython-39-x86_64-linux-gnu.so',
   'EXTENSION'),
  ('pygame.constants',
   '/home/vivallo/Programming '
   'Projects/PycharmProjects/venv/lib/python3.9/site-packages/pygame/constants.cpython-39-x86_64-linux-gnu.so',
   'EXTENSION'),
  ('pygame.base',
   '/home/vivallo/Programming '
   'Projects/PycharmProjects/venv/lib/python3.9/site-packages/pygame/base.cpython-39-x86_64-linux-gnu.so',
   'EXTENSION'),
  ('lib-dynload/_json',
   '/usr/lib/python3.9/lib-dynload/_json.cpython-39-x86_64-linux-gnu.so',
   'EXTENSION'),
  ('libz.so.1', '/usr/lib/libz.so.1', 'BINARY'),
  ('libssl.so.1.1', '/usr/lib/libssl.so.1.1', 'BINARY'),
  ('libcrypto.so.1.1', '/usr/lib/libcrypto.so.1.1', 'BINARY'),
  ('libffi.so.7', '/usr/lib/libffi.so.7', 'BINARY'),
  ('libexpat.so.1', '/usr/lib/libexpat.so.1', 'BINARY'),
  ('libuuid.so.1', '/usr/lib/libuuid.so.1', 'BINARY'),
  ('liblzma.so.5', '/usr/lib/liblzma.so.5', 'BINARY'),
  ('libbz2.so.1.0', '/usr/lib/libbz2.so.1.0', 'BINARY'),
  ('libncursesw.so.6', '/usr/lib/libncursesw.so.6', 'BINARY'),
  ('libreadline.so.8', '/usr/lib/libreadline.so.8', 'BINARY'),
  ('libSDL2_image-2-554041b7.0.so.0.2.3',
   '/home/vivallo/Programming '
   'Projects/PycharmProjects/venv/lib/python3.9/site-packages/pygame/../pygame.libs/libSDL2_image-2-554041b7.0.so.0.2.3',
   'BINARY'),
  ('libSDL2-2-d6813302.0.so.0.14.0',
   '/home/vivallo/Programming '
   'Projects/PycharmProjects/venv/lib/python3.9/site-packages/pygame/../pygame.libs/libSDL2-2-d6813302.0.so.0.14.0',
   'BINARY'),
  ('libpng16-b14e7f97.so.16.37.0',
   '/home/vivallo/Programming '
   'Projects/PycharmProjects/venv/lib/python3.9/site-packages/pygame/../pygame.libs/libpng16-b14e7f97.so.16.37.0',
   'BINARY'),
  ('libjpeg-bd53fca1.so.62.0.0',
   '/home/vivallo/Programming '
   'Projects/PycharmProjects/venv/lib/python3.9/site-packages/pygame/../pygame.libs/libjpeg-bd53fca1.so.62.0.0',
   'BINARY'),
  ('libtiff-97e44e95.so.3.8.2',
   '/home/vivallo/Programming '
   'Projects/PycharmProjects/venv/lib/python3.9/site-packages/pygame/../pygame.libs/libtiff-97e44e95.so.3.8.2',
   'BINARY'),
  ('libz-a147dcb0.so.1.2.3',
   '/home/vivallo/Programming '
   'Projects/PycharmProjects/venv/lib/python3.9/site-packages/pygame/../pygame.libs/libz-a147dcb0.so.1.2.3',
   'BINARY'),
  ('libwebp-582c46b3.so.7.1.0',
   '/home/vivallo/Programming '
   'Projects/PycharmProjects/venv/lib/python3.9/site-packages/pygame/../pygame.libs/libwebp-582c46b3.so.7.1.0',
   'BINARY'),
  ('libX11.so.6', '/usr/lib/libX11.so.6', 'BINARY'),
  ('libXau.so.6', '/usr/lib/libXau.so.6', 'BINARY'),
  ('libXdmcp.so.6', '/usr/lib/libXdmcp.so.6', 'BINARY'),
  ('libvorbis-205f0f59.so.0.4.8',
   '/home/vivallo/Programming '
   'Projects/PycharmProjects/venv/lib/python3.9/site-packages/pygame/../pygame.libs/libvorbis-205f0f59.so.0.4.8',
   'BINARY'),
  ('libogg-b51fbe74.so.0.8.4',
   '/home/vivallo/Programming '
   'Projects/PycharmProjects/venv/lib/python3.9/site-packages/pygame/../pygame.libs/libogg-b51fbe74.so.0.8.4',
   'BINARY'),
  ('libSDL2_mixer-2-5dc902ba.0.so.0.2.2',
   '/home/vivallo/Programming '
   'Projects/PycharmProjects/venv/lib/python3.9/site-packages/pygame/../pygame.libs/libSDL2_mixer-2-5dc902ba.0.so.0.2.2',
   'BINARY'),
  ('libvorbisfile-f207f3a6.so.3.3.7',
   '/home/vivallo/Programming '
   'Projects/PycharmProjects/venv/lib/python3.9/site-packages/pygame/../pygame.libs/libvorbisfile-f207f3a6.so.3.3.7',
   'BINARY'),
  ('libmikmod-fabcac29.so.2.0.4',
   '/home/vivallo/Programming '
   'Projects/PycharmProjects/venv/lib/python3.9/site-packages/pygame/../pygame.libs/libmikmod-fabcac29.so.2.0.4',
   'BINARY'),
  ('libFLAC-bf6d1292.so.8.3.0',
   '/home/vivallo/Programming '
   'Projects/PycharmProjects/venv/lib/python3.9/site-packages/pygame/../pygame.libs/libFLAC-bf6d1292.so.8.3.0',
   'BINARY'),
  ('libfreetype-2d39c124.so.6.17.1',
   '/home/vivallo/Programming '
   'Projects/PycharmProjects/venv/lib/python3.9/site-packages/pygame/../pygame.libs/libfreetype-2d39c124.so.6.17.1',
   'BINARY'),
  ('libSDL2_ttf-2-dd80ed71.0.so.0.14.1',
   '/home/vivallo/Programming '
   'Projects/PycharmProjects/venv/lib/python3.9/site-packages/pygame/../pygame.libs/libSDL2_ttf-2-dd80ed71.0.so.0.14.1',
   'BINARY'),
  ('base_library.zip',
   '/home/vivallo/Programming '
   'Projects/PycharmProjects/anagram-master/build/main/base_library.zip',
   'DATA'),
  ('pygame/freesansbold.ttf',
   '/home/vivallo/Programming '
   'Projects/PycharmProjects/venv/lib/python3.9/site-packages/pygame/freesansbold.ttf',
   'DATA'),
  ('pygame/pygame_icon.bmp',
   '/home/vivallo/Programming '
   'Projects/PycharmProjects/venv/lib/python3.9/site-packages/pygame/pygame_icon.bmp',
   'DATA')],
 [],
 False,
 False,
 1627499347,
 [('run',
   '/home/vivallo/Programming '
   'Projects/PycharmProjects/venv/lib/python3.9/site-packages/PyInstaller/bootloader/Linux-64bit-intel/run',
   'EXECUTABLE')])
